%YAML 1.1
%TAG !u! tag:unity3d.com,2011:
--- !u!1045 &1
EditorBuildSettings:
  m_ObjectHideFlags: 0
  serializedVersion: 2
  m_Scenes:
  - enabled: 1
    path: Assets/Scenes/CompleteScene_1.unity
    guid: 93405f47dbf447e4190955ddc0996bcc
  m_configObjects: {}
